stream,gain,conf_gain,uc_sz,co_sz,conf_co_sz,clf,samples
../pcaps/streams/franka_2000.pcap,0.2841681063580117,n/a,269,192,n/a,Clf.LREGR,16
../pcaps/streams/asterisk_rtp_downstream_240.pcap,0.4556920903954802,n/a,96,52,n/a,Clf.LREGR,16
../pcaps/streams/radio_miki_acks_66_no_options_0_ip_id_fix_wnd_sz.pcap,0.6945652173913044,n/a,40,12,n/a,Clf.LREGR,16
../pcaps/streams/vlc_v6_mts_gsm_s16l_ts_rtp_2_fixed_pkt_size_1_2000.pcap,-0.0032430908065426145,n/a,394,395,n/a,Clf.LREGR,16
../pcaps/streams/Ekiga_test_rtp_only_downstream_filtered.pcap,0.2270517603879295,n/a,214,165,n/a,Clf.LREGR,16
../pcaps/headers/easyIp_noPayl.pcap,0.94085,n/a,20,1,n/a,Clf.LREGR,16
../pcaps/headers/easyIpv6_noPayl.pcap,0.9739,n/a,40,1,n/a,Clf.LREGR,16
../pcaps/headers/easyUdp_noPayl.pcap,0.9545357142857143,n/a,28,1,n/a,Clf.LREGR,16
../pcaps/headers/easyUdpv6_noPayl.pcap,0.9780833333333333,n/a,48,1,n/a,Clf.LREGR,16
../pcaps/headers/easyRtpNoCsrc_noPayl.pcap,0.86345,n/a,40,5,n/a,Clf.LREGR,16
../pcaps/headers/easyRtpv6NoCsrc_noPayl.pcap,0.91025,n/a,60,5,n/a,Clf.LREGR,16
../pcaps/headers/hardRtpNoCsrc_noPayl_randTs.pcap,0.515375,n/a,40,19,n/a,Clf.LREGR,16
../pcaps/headers/hardRtpv6NoCsrc_noPayl_randTs.pcap,0.9009166666666667,n/a,60,5,n/a,Clf.LREGR,16
../pcaps/streams/franka_2000.pcap,0.48054324560049544,n/a,269,139,n/a,Clf.LREGR,32
../pcaps/streams/asterisk_rtp_downstream_240.pcap,0.2786016949152542,n/a,96,69,n/a,Clf.LREGR,32
../pcaps/streams/radio_miki_acks_66_no_options_0_ip_id_fix_wnd_sz.pcap,0.8077075098814229,n/a,40,7,n/a,Clf.LREGR,32
../pcaps/streams/vlc_v6_mts_gsm_s16l_ts_rtp_2_fixed_pkt_size_1_2000.pcap,-0.0032430908065426145,n/a,394,395,n/a,Clf.LREGR,32
../pcaps/streams/Ekiga_test_rtp_only_downstream_filtered.pcap,0.2270517603879295,n/a,214,165,n/a,Clf.LREGR,32
../pcaps/headers/easyIp_noPayl.pcap,0.94085,n/a,20,1,n/a,Clf.LREGR,32
../pcaps/headers/easyIpv6_noPayl.pcap,0.9739,n/a,40,1,n/a,Clf.LREGR,32
../pcaps/headers/easyUdp_noPayl.pcap,0.9545357142857143,n/a,28,1,n/a,Clf.LREGR,32
../pcaps/headers/easyUdpv6_noPayl.pcap,0.9780833333333333,n/a,48,1,n/a,Clf.LREGR,32
../pcaps/headers/easyRtpNoCsrc_noPayl.pcap,0.86345,n/a,40,5,n/a,Clf.LREGR,32
../pcaps/headers/easyRtpv6NoCsrc_noPayl.pcap,0.91025,n/a,60,5,n/a,Clf.LREGR,32
../pcaps/headers/hardRtpNoCsrc_noPayl_randTs.pcap,0.534,n/a,40,18,n/a,Clf.LREGR,32
../pcaps/headers/hardRtpv6NoCsrc_noPayl_randTs.pcap,0.8926333333333334,n/a,60,6,n/a,Clf.LREGR,32
../pcaps/streams/franka_2000.pcap,0.5774095226051688,n/a,269,113,n/a,Clf.LREGR,64
../pcaps/streams/asterisk_rtp_downstream_240.pcap,0.4738841807909604,n/a,96,50,n/a,Clf.LREGR,64
../pcaps/streams/radio_miki_acks_66_no_options_0_ip_id_fix_wnd_sz.pcap,0.8459486166007906,n/a,40,6,n/a,Clf.LREGR,64
../pcaps/streams/vlc_v6_mts_gsm_s16l_ts_rtp_2_fixed_pkt_size_1_2000.pcap,-0.0032430908065426145,n/a,394,395,n/a,Clf.LREGR,64
../pcaps/streams/Ekiga_test_rtp_only_downstream_filtered.pcap,0.2270517603879295,n/a,214,165,n/a,Clf.LREGR,64
../pcaps/headers/easyIp_noPayl.pcap,0.94085,n/a,20,1,n/a,Clf.LREGR,64
../pcaps/headers/easyIpv6_noPayl.pcap,0.9739,n/a,40,1,n/a,Clf.LREGR,64
../pcaps/headers/easyUdp_noPayl.pcap,0.9545357142857143,n/a,28,1,n/a,Clf.LREGR,64
../pcaps/headers/easyUdpv6_noPayl.pcap,0.9780833333333333,n/a,48,1,n/a,Clf.LREGR,64
../pcaps/headers/easyRtpNoCsrc_noPayl.pcap,0.86345,n/a,40,5,n/a,Clf.LREGR,64
../pcaps/headers/easyRtpv6NoCsrc_noPayl.pcap,0.91025,n/a,60,5,n/a,Clf.LREGR,64
../pcaps/headers/hardRtpNoCsrc_noPayl_randTs.pcap,0.837575,n/a,40,6,n/a,Clf.LREGR,64
../pcaps/headers/hardRtpv6NoCsrc_noPayl_randTs.pcap,0.8926333333333334,n/a,60,6,n/a,Clf.LREGR,64
../pcaps/streams/franka_2000.pcap,0.6019905863712525,n/a,269,107,n/a,Clf.LREGR,128
../pcaps/streams/asterisk_rtp_downstream_240.pcap,0.501002824858757,n/a,96,47,n/a,Clf.LREGR,128
../pcaps/streams/radio_miki_acks_66_no_options_0_ip_id_fix_wnd_sz.pcap,0.8459486166007906,n/a,40,6,n/a,Clf.LREGR,128
../pcaps/streams/vlc_v6_mts_gsm_s16l_ts_rtp_2_fixed_pkt_size_1_2000.pcap,0.16974461771416083,n/a,394,327,n/a,Clf.LREGR,128
../pcaps/streams/Ekiga_test_rtp_only_downstream_filtered.pcap,0.2266689352600173,n/a,214,165,n/a,Clf.LREGR,128
../pcaps/headers/easyIp_noPayl.pcap,0.94085,n/a,20,1,n/a,Clf.LREGR,128
../pcaps/headers/easyIpv6_noPayl.pcap,0.9739,n/a,40,1,n/a,Clf.LREGR,128
../pcaps/headers/easyUdp_noPayl.pcap,0.9545357142857143,n/a,28,1,n/a,Clf.LREGR,128
../pcaps/headers/easyUdpv6_noPayl.pcap,0.9780833333333333,n/a,48,1,n/a,Clf.LREGR,128
../pcaps/headers/easyRtpNoCsrc_noPayl.pcap,0.86345,n/a,40,5,n/a,Clf.LREGR,128
../pcaps/headers/easyRtpv6NoCsrc_noPayl.pcap,0.91025,n/a,60,5,n/a,Clf.LREGR,128
../pcaps/headers/hardRtpNoCsrc_noPayl_randTs.pcap,0.837575,n/a,40,6,n/a,Clf.LREGR,128
../pcaps/headers/hardRtpv6NoCsrc_noPayl_randTs.pcap,0.8926333333333334,n/a,60,6,n/a,Clf.LREGR,128
../pcaps/streams/franka_2000.pcap,0.6017544088029145,n/a,269,107,n/a,Clf.LREGR,-1
../pcaps/streams/asterisk_rtp_downstream_240.pcap,0.48858050847457624,n/a,96,49,n/a,Clf.LREGR,-1
../pcaps/streams/radio_miki_acks_66_no_options_0_ip_id_fix_wnd_sz.pcap,0.8459486166007906,n/a,40,6,n/a,Clf.LREGR,-1
../pcaps/streams/vlc_v6_mts_gsm_s16l_ts_rtp_2_fixed_pkt_size_1_2000.pcap,0.16740471435902904,n/a,394,328,n/a,Clf.LREGR,-1
../pcaps/streams/Ekiga_test_rtp_only_downstream_filtered.pcap,0.22312628367949638,n/a,214,166,n/a,Clf.LREGR,-1
../pcaps/headers/easyIp_noPayl.pcap,0.84785,n/a,20,3,n/a,Clf.LREGR,-1
../pcaps/headers/easyIpv6_noPayl.pcap,0.9739,n/a,40,1,n/a,Clf.LREGR,-1
../pcaps/headers/easyUdp_noPayl.pcap,0.8909285714285714,n/a,28,3,n/a,Clf.LREGR,-1
../pcaps/headers/easyUdpv6_noPayl.pcap,0.9780833333333333,n/a,48,1,n/a,Clf.LREGR,-1
../pcaps/headers/easyRtpNoCsrc_noPayl.pcap,0.773025,n/a,40,9,n/a,Clf.LREGR,-1
../pcaps/headers/easyRtpv6NoCsrc_noPayl.pcap,0.8821833333333333,n/a,60,7,n/a,Clf.LREGR,-1
../pcaps/headers/hardRtpNoCsrc_noPayl_randTs.pcap,0.74805,n/a,40,10,n/a,Clf.LREGR,-1
../pcaps/headers/hardRtpv6NoCsrc_noPayl_randTs.pcap,0.8655333333333333,n/a,60,8,n/a,Clf.LREGR,-1
../pcaps/streams/franka_2000.pcap,0.282806830924756,n/a,269,192,n/a,Clf.LIN_SVC,16
../pcaps/streams/asterisk_rtp_downstream_240.pcap,0.3476694915254237,n/a,96,62,n/a,Clf.LIN_SVC,16
../pcaps/streams/radio_miki_acks_66_no_options_0_ip_id_fix_wnd_sz.pcap,0.6947628458498023,n/a,40,12,n/a,Clf.LIN_SVC,16
../pcaps/streams/vlc_v6_mts_gsm_s16l_ts_rtp_2_fixed_pkt_size_1_2000.pcap,-0.0032430908065426145,n/a,394,395,n/a,Clf.LIN_SVC,16
../pcaps/streams/Ekiga_test_rtp_only_downstream_filtered.pcap,0.2270517603879295,n/a,214,165,n/a,Clf.LIN_SVC,16
../pcaps/headers/easyIp_noPayl.pcap,0.94085,n/a,20,1,n/a,Clf.LIN_SVC,16
../pcaps/headers/easyIpv6_noPayl.pcap,0.9739,n/a,40,1,n/a,Clf.LIN_SVC,16
../pcaps/headers/easyUdp_noPayl.pcap,0.9545357142857143,n/a,28,1,n/a,Clf.LIN_SVC,16
../pcaps/headers/easyUdpv6_noPayl.pcap,0.9780833333333333,n/a,48,1,n/a,Clf.LIN_SVC,16
../pcaps/headers/easyRtpNoCsrc_noPayl.pcap,0.86345,n/a,40,5,n/a,Clf.LIN_SVC,16
../pcaps/headers/easyRtpv6NoCsrc_noPayl.pcap,0.91025,n/a,60,5,n/a,Clf.LIN_SVC,16
../pcaps/headers/hardRtpNoCsrc_noPayl_randTs.pcap,0.542675,n/a,40,18,n/a,Clf.LIN_SVC,16
../pcaps/headers/hardRtpv6NoCsrc_noPayl_randTs.pcap,0.9009166666666667,n/a,60,5,n/a,Clf.LIN_SVC,16
../pcaps/streams/franka_2000.pcap,0.47967292196284017,n/a,269,139,n/a,Clf.LIN_SVC,32
../pcaps/streams/asterisk_rtp_downstream_240.pcap,0.19088983050847452,n/a,96,77,n/a,Clf.LIN_SVC,32
../pcaps/streams/radio_miki_acks_66_no_options_0_ip_id_fix_wnd_sz.pcap,0.7995059288537549,n/a,40,8,n/a,Clf.LIN_SVC,32
../pcaps/streams/vlc_v6_mts_gsm_s16l_ts_rtp_2_fixed_pkt_size_1_2000.pcap,-0.0032430908065426145,n/a,394,395,n/a,Clf.LIN_SVC,32
../pcaps/streams/Ekiga_test_rtp_only_downstream_filtered.pcap,0.2270517603879295,n/a,214,165,n/a,Clf.LIN_SVC,32
../pcaps/headers/easyIp_noPayl.pcap,0.94085,n/a,20,1,n/a,Clf.LIN_SVC,32
../pcaps/headers/easyIpv6_noPayl.pcap,0.9739,n/a,40,1,n/a,Clf.LIN_SVC,32
../pcaps/headers/easyUdp_noPayl.pcap,0.9545357142857143,n/a,28,1,n/a,Clf.LIN_SVC,32
../pcaps/headers/easyUdpv6_noPayl.pcap,0.9780833333333333,n/a,48,1,n/a,Clf.LIN_SVC,32
../pcaps/headers/easyRtpNoCsrc_noPayl.pcap,0.86345,n/a,40,5,n/a,Clf.LIN_SVC,32
../pcaps/headers/easyRtpv6NoCsrc_noPayl.pcap,0.91025,n/a,60,5,n/a,Clf.LIN_SVC,32
../pcaps/headers/hardRtpNoCsrc_noPayl_randTs.pcap,0.547275,n/a,40,18,n/a,Clf.LIN_SVC,32
../pcaps/headers/hardRtpv6NoCsrc_noPayl_randTs.pcap,0.8926333333333334,n/a,60,6,n/a,Clf.LIN_SVC,32
../pcaps/streams/franka_2000.pcap,0.5765540762946528,n/a,269,113,n/a,Clf.LIN_SVC,64
../pcaps/streams/asterisk_rtp_downstream_240.pcap,0.45778248587570625,n/a,96,52,n/a,Clf.LIN_SVC,64
../pcaps/streams/radio_miki_acks_66_no_options_0_ip_id_fix_wnd_sz.pcap,0.8459486166007906,n/a,40,6,n/a,Clf.LIN_SVC,64
../pcaps/streams/vlc_v6_mts_gsm_s16l_ts_rtp_2_fixed_pkt_size_1_2000.pcap,-0.0032430908065426145,n/a,394,395,n/a,Clf.LIN_SVC,64
../pcaps/streams/Ekiga_test_rtp_only_downstream_filtered.pcap,0.2270517603879295,n/a,214,165,n/a,Clf.LIN_SVC,64
../pcaps/headers/easyIp_noPayl.pcap,0.94085,n/a,20,1,n/a,Clf.LIN_SVC,64
../pcaps/headers/easyIpv6_noPayl.pcap,0.9739,n/a,40,1,n/a,Clf.LIN_SVC,64
../pcaps/headers/easyUdp_noPayl.pcap,0.9545357142857143,n/a,28,1,n/a,Clf.LIN_SVC,64
../pcaps/headers/easyUdpv6_noPayl.pcap,0.9780833333333333,n/a,48,1,n/a,Clf.LIN_SVC,64
../pcaps/headers/easyRtpNoCsrc_noPayl.pcap,0.86345,n/a,40,5,n/a,Clf.LIN_SVC,64
../pcaps/headers/easyRtpv6NoCsrc_noPayl.pcap,0.91025,n/a,60,5,n/a,Clf.LIN_SVC,64
../pcaps/headers/hardRtpNoCsrc_noPayl_randTs.pcap,0.837575,n/a,40,6,n/a,Clf.LIN_SVC,64
../pcaps/headers/hardRtpv6NoCsrc_noPayl_randTs.pcap,0.8926333333333334,n/a,60,6,n/a,Clf.LIN_SVC,64
../pcaps/streams/franka_2000.pcap,0.6028199973592745,n/a,269,106,n/a,Clf.LIN_SVC,128
../pcaps/streams/asterisk_rtp_downstream_240.pcap,0.5043926553672317,n/a,96,47,n/a,Clf.LIN_SVC,128
../pcaps/streams/radio_miki_acks_66_no_options_0_ip_id_fix_wnd_sz.pcap,0.8459486166007906,n/a,40,6,n/a,Clf.LIN_SVC,128
../pcaps/streams/vlc_v6_mts_gsm_s16l_ts_rtp_2_fixed_pkt_size_1_2000.pcap,0.16974461771416083,n/a,394,327,n/a,Clf.LIN_SVC,128
../pcaps/streams/Ekiga_test_rtp_only_downstream_filtered.pcap,0.2266689352600173,n/a,214,165,n/a,Clf.LIN_SVC,128
../pcaps/headers/easyIp_noPayl.pcap,0.94085,n/a,20,1,n/a,Clf.LIN_SVC,128
../pcaps/headers/easyIpv6_noPayl.pcap,0.9739,n/a,40,1,n/a,Clf.LIN_SVC,128
../pcaps/headers/easyUdp_noPayl.pcap,0.9545357142857143,n/a,28,1,n/a,Clf.LIN_SVC,128
../pcaps/headers/easyUdpv6_noPayl.pcap,0.9780833333333333,n/a,48,1,n/a,Clf.LIN_SVC,128
../pcaps/headers/easyRtpNoCsrc_noPayl.pcap,0.86345,n/a,40,5,n/a,Clf.LIN_SVC,128
../pcaps/headers/easyRtpv6NoCsrc_noPayl.pcap,0.91025,n/a,60,5,n/a,Clf.LIN_SVC,128
../pcaps/headers/hardRtpNoCsrc_noPayl_randTs.pcap,0.837575,n/a,40,6,n/a,Clf.LIN_SVC,128
../pcaps/headers/hardRtpv6NoCsrc_noPayl_randTs.pcap,0.8926333333333334,n/a,60,6,n/a,Clf.LIN_SVC,128
../pcaps/streams/franka_2000.pcap,0.6017544088029145,n/a,269,107,n/a,Clf.LIN_SVC,-1
../pcaps/streams/asterisk_rtp_downstream_240.pcap,0.4877612994350282,n/a,96,49,n/a,Clf.LIN_SVC,-1
../pcaps/streams/radio_miki_acks_66_no_options_0_ip_id_fix_wnd_sz.pcap,0.8459486166007906,n/a,40,6,n/a,Clf.LIN_SVC,-1
../pcaps/streams/vlc_v6_mts_gsm_s16l_ts_rtp_2_fixed_pkt_size_1_2000.pcap,0.16740471435902904,n/a,394,328,n/a,Clf.LIN_SVC,-1
../pcaps/streams/Ekiga_test_rtp_only_downstream_filtered.pcap,0.22312628367949638,n/a,214,166,n/a,Clf.LIN_SVC,-1
../pcaps/headers/easyIp_noPayl.pcap,0.84785,n/a,20,3,n/a,Clf.LIN_SVC,-1
../pcaps/headers/easyIpv6_noPayl.pcap,0.9739,n/a,40,1,n/a,Clf.LIN_SVC,-1
../pcaps/headers/easyUdp_noPayl.pcap,0.8909285714285714,n/a,28,3,n/a,Clf.LIN_SVC,-1
../pcaps/headers/easyUdpv6_noPayl.pcap,0.9780833333333333,n/a,48,1,n/a,Clf.LIN_SVC,-1
../pcaps/headers/easyRtpNoCsrc_noPayl.pcap,0.773025,n/a,40,9,n/a,Clf.LIN_SVC,-1
../pcaps/headers/easyRtpv6NoCsrc_noPayl.pcap,0.8821833333333333,n/a,60,7,n/a,Clf.LIN_SVC,-1
../pcaps/headers/hardRtpNoCsrc_noPayl_randTs.pcap,0.74805,n/a,40,10,n/a,Clf.LIN_SVC,-1
../pcaps/headers/hardRtpv6NoCsrc_noPayl_randTs.pcap,0.8655333333333333,n/a,60,8,n/a,Clf.LIN_SVC,-1
../pcaps/streams/franka_2000.pcap,0.25785011464840224,n/a,269,199,n/a,Clf.DTREE,16
../pcaps/streams/asterisk_rtp_downstream_240.pcap,0.5031214689265537,n/a,96,47,n/a,Clf.DTREE,16
../pcaps/streams/radio_miki_acks_66_no_options_0_ip_id_fix_wnd_sz.pcap,0.8172924901185771,n/a,40,7,n/a,Clf.DTREE,16
../pcaps/streams/vlc_v6_mts_gsm_s16l_ts_rtp_2_fixed_pkt_size_1_2000.pcap,-0.0032430908065426145,n/a,394,395,n/a,Clf.DTREE,16
../pcaps/streams/Ekiga_test_rtp_only_downstream_filtered.pcap,0.2270517603879295,n/a,214,165,n/a,Clf.DTREE,16
../pcaps/headers/easyIp_noPayl.pcap,0.94085,n/a,20,1,n/a,Clf.DTREE,16
../pcaps/headers/easyIpv6_noPayl.pcap,0.9739,n/a,40,1,n/a,Clf.DTREE,16
../pcaps/headers/easyUdp_noPayl.pcap,0.9545357142857143,n/a,28,1,n/a,Clf.DTREE,16
../pcaps/headers/easyUdpv6_noPayl.pcap,0.9780833333333333,n/a,48,1,n/a,Clf.DTREE,16
../pcaps/headers/easyRtpNoCsrc_noPayl.pcap,0.86345,n/a,40,5,n/a,Clf.DTREE,16
../pcaps/headers/easyRtpv6NoCsrc_noPayl.pcap,0.91025,n/a,60,5,n/a,Clf.DTREE,16
../pcaps/headers/hardRtpNoCsrc_noPayl_randTs.pcap,0.607575,n/a,40,15,n/a,Clf.DTREE,16
../pcaps/headers/hardRtpv6NoCsrc_noPayl_randTs.pcap,0.9009166666666667,n/a,60,5,n/a,Clf.DTREE,16
../pcaps/streams/franka_2000.pcap,0.4165744582328339,n/a,269,156,n/a,Clf.DTREE,32
../pcaps/streams/asterisk_rtp_downstream_240.pcap,0.5031214689265537,n/a,96,47,n/a,Clf.DTREE,32
../pcaps/streams/radio_miki_acks_66_no_options_0_ip_id_fix_wnd_sz.pcap,0.7921936758893281,n/a,40,8,n/a,Clf.DTREE,32
../pcaps/streams/vlc_v6_mts_gsm_s16l_ts_rtp_2_fixed_pkt_size_1_2000.pcap,-0.0032430908065426145,n/a,394,395,n/a,Clf.DTREE,32
../pcaps/streams/Ekiga_test_rtp_only_downstream_filtered.pcap,0.2270517603879295,n/a,214,165,n/a,Clf.DTREE,32
../pcaps/headers/easyIp_noPayl.pcap,0.94085,n/a,20,1,n/a,Clf.DTREE,32
../pcaps/headers/easyIpv6_noPayl.pcap,0.9739,n/a,40,1,n/a,Clf.DTREE,32
../pcaps/headers/easyUdp_noPayl.pcap,0.9545357142857143,n/a,28,1,n/a,Clf.DTREE,32
../pcaps/headers/easyUdpv6_noPayl.pcap,0.9780833333333333,n/a,48,1,n/a,Clf.DTREE,32
../pcaps/headers/easyRtpNoCsrc_noPayl.pcap,0.86345,n/a,40,5,n/a,Clf.DTREE,32
../pcaps/headers/easyRtpv6NoCsrc_noPayl.pcap,0.91025,n/a,60,5,n/a,Clf.DTREE,32
../pcaps/headers/hardRtpNoCsrc_noPayl_randTs.pcap,0.607575,n/a,40,15,n/a,Clf.DTREE,32
../pcaps/headers/hardRtpv6NoCsrc_noPayl_randTs.pcap,0.8926333333333334,n/a,60,6,n/a,Clf.DTREE,32
../pcaps/streams/franka_2000.pcap,0.5794923484046857,n/a,269,113,n/a,Clf.DTREE,64
../pcaps/streams/asterisk_rtp_downstream_240.pcap,0.5031214689265537,n/a,96,47,n/a,Clf.DTREE,64
../pcaps/streams/radio_miki_acks_66_no_options_0_ip_id_fix_wnd_sz.pcap,0.8459486166007906,n/a,40,6,n/a,Clf.DTREE,64
../pcaps/streams/vlc_v6_mts_gsm_s16l_ts_rtp_2_fixed_pkt_size_1_2000.pcap,-0.0032430908065426145,n/a,394,395,n/a,Clf.DTREE,64
../pcaps/streams/Ekiga_test_rtp_only_downstream_filtered.pcap,0.2270517603879295,n/a,214,165,n/a,Clf.DTREE,64
../pcaps/headers/easyIp_noPayl.pcap,0.94085,n/a,20,1,n/a,Clf.DTREE,64
../pcaps/headers/easyIpv6_noPayl.pcap,0.9739,n/a,40,1,n/a,Clf.DTREE,64
../pcaps/headers/easyUdp_noPayl.pcap,0.9545357142857143,n/a,28,1,n/a,Clf.DTREE,64
../pcaps/headers/easyUdpv6_noPayl.pcap,0.9780833333333333,n/a,48,1,n/a,Clf.DTREE,64
../pcaps/headers/easyRtpNoCsrc_noPayl.pcap,0.86345,n/a,40,5,n/a,Clf.DTREE,64
../pcaps/headers/easyRtpv6NoCsrc_noPayl.pcap,0.91025,n/a,60,5,n/a,Clf.DTREE,64
../pcaps/headers/hardRtpNoCsrc_noPayl_randTs.pcap,0.837575,n/a,40,6,n/a,Clf.DTREE,64
../pcaps/headers/hardRtpv6NoCsrc_noPayl_randTs.pcap,0.8926333333333334,n/a,60,6,n/a,Clf.DTREE,64
../pcaps/streams/franka_2000.pcap,0.4962295274031068,n/a,269,135,n/a,Clf.DTREE,128
../pcaps/streams/asterisk_rtp_downstream_240.pcap,0.4882909604519774,n/a,96,49,n/a,Clf.DTREE,128
../pcaps/streams/radio_miki_acks_66_no_options_0_ip_id_fix_wnd_sz.pcap,0.8459486166007906,n/a,40,6,n/a,Clf.DTREE,128
../pcaps/streams/vlc_v6_mts_gsm_s16l_ts_rtp_2_fixed_pkt_size_1_2000.pcap,0.13562547318892493,n/a,394,340,n/a,Clf.DTREE,128
../pcaps/streams/Ekiga_test_rtp_only_downstream_filtered.pcap,0.22590328500419288,n/a,214,165,n/a,Clf.DTREE,128
../pcaps/headers/easyIp_noPayl.pcap,0.94085,n/a,20,1,n/a,Clf.DTREE,128
../pcaps/headers/easyIpv6_noPayl.pcap,0.9739,n/a,40,1,n/a,Clf.DTREE,128
../pcaps/headers/easyUdp_noPayl.pcap,0.9545357142857143,n/a,28,1,n/a,Clf.DTREE,128
../pcaps/headers/easyUdpv6_noPayl.pcap,0.9780833333333333,n/a,48,1,n/a,Clf.DTREE,128
../pcaps/headers/easyRtpNoCsrc_noPayl.pcap,0.86345,n/a,40,5,n/a,Clf.DTREE,128
../pcaps/headers/easyRtpv6NoCsrc_noPayl.pcap,0.91025,n/a,60,5,n/a,Clf.DTREE,128
../pcaps/headers/hardRtpNoCsrc_noPayl_randTs.pcap,0.837575,n/a,40,6,n/a,Clf.DTREE,128
../pcaps/headers/hardRtpv6NoCsrc_noPayl_randTs.pcap,0.8926333333333334,n/a,60,6,n/a,Clf.DTREE,128
../pcaps/streams/franka_2000.pcap,0.6017544088029145,n/a,269,107,n/a,Clf.DTREE,-1
../pcaps/streams/asterisk_rtp_downstream_240.pcap,0.48858050847457624,n/a,96,49,n/a,Clf.DTREE,-1
../pcaps/streams/radio_miki_acks_66_no_options_0_ip_id_fix_wnd_sz.pcap,0.8459486166007906,n/a,40,6,n/a,Clf.DTREE,-1
../pcaps/streams/vlc_v6_mts_gsm_s16l_ts_rtp_2_fixed_pkt_size_1_2000.pcap,0.16740471435902904,n/a,394,328,n/a,Clf.DTREE,-1
../pcaps/streams/Ekiga_test_rtp_only_downstream_filtered.pcap,0.22312628367949638,n/a,214,166,n/a,Clf.DTREE,-1
../pcaps/headers/easyIp_noPayl.pcap,0.84785,n/a,20,3,n/a,Clf.DTREE,-1
../pcaps/headers/easyIpv6_noPayl.pcap,0.9739,n/a,40,1,n/a,Clf.DTREE,-1
../pcaps/headers/easyUdp_noPayl.pcap,0.8909285714285714,n/a,28,3,n/a,Clf.DTREE,-1
../pcaps/headers/easyUdpv6_noPayl.pcap,0.9780833333333333,n/a,48,1,n/a,Clf.DTREE,-1
../pcaps/headers/easyRtpNoCsrc_noPayl.pcap,0.773025,n/a,40,9,n/a,Clf.DTREE,-1
../pcaps/headers/easyRtpv6NoCsrc_noPayl.pcap,0.8821833333333333,n/a,60,7,n/a,Clf.DTREE,-1
../pcaps/headers/hardRtpNoCsrc_noPayl_randTs.pcap,0.74805,n/a,40,10,n/a,Clf.DTREE,-1
../pcaps/headers/hardRtpv6NoCsrc_noPayl_randTs.pcap,0.8655333333333333,n/a,60,8,n/a,Clf.DTREE,-1
../pcaps/streams/franka_2000.pcap,0.2773617291917334,n/a,269,194,n/a,Clf.RFOREST,16
../pcaps/streams/asterisk_rtp_downstream_240.pcap,0.43535310734463273,n/a,96,54,n/a,Clf.RFOREST,16
../pcaps/streams/radio_miki_acks_66_no_options_0_ip_id_fix_wnd_sz.pcap,0.81699604743083,n/a,40,7,n/a,Clf.RFOREST,16
../pcaps/streams/vlc_v6_mts_gsm_s16l_ts_rtp_2_fixed_pkt_size_1_2000.pcap,-0.0032430908065426145,n/a,394,395,n/a,Clf.RFOREST,16
../pcaps/streams/Ekiga_test_rtp_only_downstream_filtered.pcap,0.2270517603879295,n/a,214,165,n/a,Clf.RFOREST,16
../pcaps/headers/easyIp_noPayl.pcap,0.94085,n/a,20,1,n/a,Clf.RFOREST,16
../pcaps/headers/easyIpv6_noPayl.pcap,0.9739,n/a,40,1,n/a,Clf.RFOREST,16
../pcaps/headers/easyUdp_noPayl.pcap,0.9545357142857143,n/a,28,1,n/a,Clf.RFOREST,16
../pcaps/headers/easyUdpv6_noPayl.pcap,0.9780833333333333,n/a,48,1,n/a,Clf.RFOREST,16
../pcaps/headers/easyRtpNoCsrc_noPayl.pcap,0.86345,n/a,40,5,n/a,Clf.RFOREST,16
../pcaps/headers/easyRtpv6NoCsrc_noPayl.pcap,0.91025,n/a,60,5,n/a,Clf.RFOREST,16
../pcaps/headers/hardRtpNoCsrc_noPayl_randTs.pcap,0.7047749999999999,n/a,40,11,n/a,Clf.RFOREST,16
../pcaps/headers/hardRtpv6NoCsrc_noPayl_randTs.pcap,0.8029166666666667,n/a,60,11,n/a,Clf.RFOREST,16
../pcaps/streams/franka_2000.pcap,0.4827190546946336,n/a,269,139,n/a,Clf.RFOREST,32
../pcaps/streams/asterisk_rtp_downstream_240.pcap,0.5043926553672317,n/a,96,47,n/a,Clf.RFOREST,32
../pcaps/streams/radio_miki_acks_66_no_options_0_ip_id_fix_wnd_sz.pcap,0.808596837944664,n/a,40,7,n/a,Clf.RFOREST,32
../pcaps/streams/vlc_v6_mts_gsm_s16l_ts_rtp_2_fixed_pkt_size_1_2000.pcap,-0.0032430908065426145,n/a,394,395,n/a,Clf.RFOREST,32
../pcaps/streams/Ekiga_test_rtp_only_downstream_filtered.pcap,0.2270517603879295,n/a,214,165,n/a,Clf.RFOREST,32
../pcaps/headers/easyIp_noPayl.pcap,0.94085,n/a,20,1,n/a,Clf.RFOREST,32
../pcaps/headers/easyIpv6_noPayl.pcap,0.9739,n/a,40,1,n/a,Clf.RFOREST,32
../pcaps/headers/easyUdp_noPayl.pcap,0.9545357142857143,n/a,28,1,n/a,Clf.RFOREST,32
../pcaps/headers/easyUdpv6_noPayl.pcap,0.9780833333333333,n/a,48,1,n/a,Clf.RFOREST,32
../pcaps/headers/easyRtpNoCsrc_noPayl.pcap,0.86345,n/a,40,5,n/a,Clf.RFOREST,32
../pcaps/headers/easyRtpv6NoCsrc_noPayl.pcap,0.91025,n/a,60,5,n/a,Clf.RFOREST,32
../pcaps/headers/hardRtpNoCsrc_noPayl_randTs.pcap,0.829025,n/a,40,6,n/a,Clf.RFOREST,32
../pcaps/headers/hardRtpv6NoCsrc_noPayl_randTs.pcap,0.8926333333333334,n/a,60,6,n/a,Clf.RFOREST,32
../pcaps/streams/franka_2000.pcap,0.5765540762946528,n/a,269,113,n/a,Clf.RFOREST,64
../pcaps/streams/asterisk_rtp_downstream_240.pcap,0.5052401129943502,n/a,96,47,n/a,Clf.RFOREST,64
../pcaps/streams/radio_miki_acks_66_no_options_0_ip_id_fix_wnd_sz.pcap,0.8459486166007906,n/a,40,6,n/a,Clf.RFOREST,64
../pcaps/streams/vlc_v6_mts_gsm_s16l_ts_rtp_2_fixed_pkt_size_1_2000.pcap,-0.0032430908065426145,n/a,394,395,n/a,Clf.RFOREST,64
../pcaps/streams/Ekiga_test_rtp_only_downstream_filtered.pcap,0.2270517603879295,n/a,214,165,n/a,Clf.RFOREST,64
../pcaps/headers/easyIp_noPayl.pcap,0.94085,n/a,20,1,n/a,Clf.RFOREST,64
../pcaps/headers/easyIpv6_noPayl.pcap,0.9739,n/a,40,1,n/a,Clf.RFOREST,64
../pcaps/headers/easyUdp_noPayl.pcap,0.9545357142857143,n/a,28,1,n/a,Clf.RFOREST,64
../pcaps/headers/easyUdpv6_noPayl.pcap,0.9780833333333333,n/a,48,1,n/a,Clf.RFOREST,64
../pcaps/headers/easyRtpNoCsrc_noPayl.pcap,0.86345,n/a,40,5,n/a,Clf.RFOREST,64
../pcaps/headers/easyRtpv6NoCsrc_noPayl.pcap,0.91025,n/a,60,5,n/a,Clf.RFOREST,64
../pcaps/headers/hardRtpNoCsrc_noPayl_randTs.pcap,0.837575,n/a,40,6,n/a,Clf.RFOREST,64
../pcaps/headers/hardRtpv6NoCsrc_noPayl_randTs.pcap,0.8926333333333334,n/a,60,6,n/a,Clf.RFOREST,64
../pcaps/streams/franka_2000.pcap,0.6053082303233401,n/a,269,106,n/a,Clf.RFOREST,128
../pcaps/streams/asterisk_rtp_downstream_240.pcap,0.5043926553672317,n/a,96,47,n/a,Clf.RFOREST,128
../pcaps/streams/radio_miki_acks_66_no_options_0_ip_id_fix_wnd_sz.pcap,0.8459486166007906,n/a,40,6,n/a,Clf.RFOREST,128
../pcaps/streams/vlc_v6_mts_gsm_s16l_ts_rtp_2_fixed_pkt_size_1_2000.pcap,0.16952358449820382,n/a,394,327,n/a,Clf.RFOREST,128
../pcaps/streams/Ekiga_test_rtp_only_downstream_filtered.pcap,0.2266689352600173,n/a,214,165,n/a,Clf.RFOREST,128
../pcaps/headers/easyIp_noPayl.pcap,0.94085,n/a,20,1,n/a,Clf.RFOREST,128
../pcaps/headers/easyIpv6_noPayl.pcap,0.9739,n/a,40,1,n/a,Clf.RFOREST,128
../pcaps/headers/easyUdp_noPayl.pcap,0.9545357142857143,n/a,28,1,n/a,Clf.RFOREST,128
../pcaps/headers/easyUdpv6_noPayl.pcap,0.9780833333333333,n/a,48,1,n/a,Clf.RFOREST,128
../pcaps/headers/easyRtpNoCsrc_noPayl.pcap,0.86345,n/a,40,5,n/a,Clf.RFOREST,128
../pcaps/headers/easyRtpv6NoCsrc_noPayl.pcap,0.91025,n/a,60,5,n/a,Clf.RFOREST,128
../pcaps/headers/hardRtpNoCsrc_noPayl_randTs.pcap,0.837575,n/a,40,6,n/a,Clf.RFOREST,128
../pcaps/headers/hardRtpv6NoCsrc_noPayl_randTs.pcap,0.8926333333333334,n/a,60,6,n/a,Clf.RFOREST,128
../pcaps/streams/franka_2000.pcap,0.6017544088029145,n/a,269,107,n/a,Clf.RFOREST,-1
../pcaps/streams/asterisk_rtp_downstream_240.pcap,0.48858050847457624,n/a,96,49,n/a,Clf.RFOREST,-1
../pcaps/streams/radio_miki_acks_66_no_options_0_ip_id_fix_wnd_sz.pcap,0.8459486166007906,n/a,40,6,n/a,Clf.RFOREST,-1
../pcaps/streams/vlc_v6_mts_gsm_s16l_ts_rtp_2_fixed_pkt_size_1_2000.pcap,0.16740471435902904,n/a,394,328,n/a,Clf.RFOREST,-1
../pcaps/streams/Ekiga_test_rtp_only_downstream_filtered.pcap,0.22312628367949638,n/a,214,166,n/a,Clf.RFOREST,-1
../pcaps/headers/easyIp_noPayl.pcap,0.84785,n/a,20,3,n/a,Clf.RFOREST,-1
../pcaps/headers/easyIpv6_noPayl.pcap,0.9739,n/a,40,1,n/a,Clf.RFOREST,-1
../pcaps/headers/easyUdp_noPayl.pcap,0.8909285714285714,n/a,28,3,n/a,Clf.RFOREST,-1
../pcaps/headers/easyUdpv6_noPayl.pcap,0.9780833333333333,n/a,48,1,n/a,Clf.RFOREST,-1
../pcaps/headers/easyRtpNoCsrc_noPayl.pcap,0.773025,n/a,40,9,n/a,Clf.RFOREST,-1
../pcaps/headers/easyRtpv6NoCsrc_noPayl.pcap,0.8821833333333333,n/a,60,7,n/a,Clf.RFOREST,-1
../pcaps/headers/hardRtpNoCsrc_noPayl_randTs.pcap,0.74805,n/a,40,10,n/a,Clf.RFOREST,-1
../pcaps/headers/hardRtpv6NoCsrc_noPayl_randTs.pcap,0.8655333333333333,n/a,60,8,n/a,Clf.RFOREST,-1
../pcaps/streams/franka_2000.pcap,0.29052072504653814,n/a,269,190,n/a,Clf.BAYES,16
../pcaps/streams/asterisk_rtp_downstream_240.pcap,0.505247175141243,n/a,96,47,n/a,Clf.BAYES,16
../pcaps/streams/radio_miki_acks_66_no_options_0_ip_id_fix_wnd_sz.pcap,0.8338932806324111,n/a,40,6,n/a,Clf.BAYES,16
../pcaps/streams/vlc_v6_mts_gsm_s16l_ts_rtp_2_fixed_pkt_size_1_2000.pcap,-0.0032430908065426145,n/a,394,395,n/a,Clf.BAYES,16
../pcaps/streams/Ekiga_test_rtp_only_downstream_filtered.pcap,0.2270517603879295,n/a,214,165,n/a,Clf.BAYES,16
../pcaps/headers/easyIp_noPayl.pcap,0.94085,n/a,20,1,n/a,Clf.BAYES,16
../pcaps/headers/easyIpv6_noPayl.pcap,0.9739,n/a,40,1,n/a,Clf.BAYES,16
../pcaps/headers/easyUdp_noPayl.pcap,0.9545357142857143,n/a,28,1,n/a,Clf.BAYES,16
../pcaps/headers/easyUdpv6_noPayl.pcap,0.9780833333333333,n/a,48,1,n/a,Clf.BAYES,16
../pcaps/headers/easyRtpNoCsrc_noPayl.pcap,0.86345,n/a,40,5,n/a,Clf.BAYES,16
../pcaps/headers/easyRtpv6NoCsrc_noPayl.pcap,0.91025,n/a,60,5,n/a,Clf.BAYES,16
../pcaps/headers/hardRtpNoCsrc_noPayl_randTs.pcap,0.839925,n/a,40,6,n/a,Clf.BAYES,16
../pcaps/headers/hardRtpv6NoCsrc_noPayl_randTs.pcap,0.9009166666666667,n/a,60,5,n/a,Clf.BAYES,16
../pcaps/streams/franka_2000.pcap,0.4827190546946336,n/a,269,139,n/a,Clf.BAYES,32
../pcaps/streams/asterisk_rtp_downstream_240.pcap,0.505247175141243,n/a,96,47,n/a,Clf.BAYES,32
../pcaps/streams/radio_miki_acks_66_no_options_0_ip_id_fix_wnd_sz.pcap,0.8338932806324111,n/a,40,6,n/a,Clf.BAYES,32
../pcaps/streams/vlc_v6_mts_gsm_s16l_ts_rtp_2_fixed_pkt_size_1_2000.pcap,-0.0032430908065426145,n/a,394,395,n/a,Clf.BAYES,32
../pcaps/streams/Ekiga_test_rtp_only_downstream_filtered.pcap,0.2270517603879295,n/a,214,165,n/a,Clf.BAYES,32
../pcaps/headers/easyIp_noPayl.pcap,0.94085,n/a,20,1,n/a,Clf.BAYES,32
../pcaps/headers/easyIpv6_noPayl.pcap,0.9739,n/a,40,1,n/a,Clf.BAYES,32
../pcaps/headers/easyUdp_noPayl.pcap,0.9545357142857143,n/a,28,1,n/a,Clf.BAYES,32
../pcaps/headers/easyUdpv6_noPayl.pcap,0.9780833333333333,n/a,48,1,n/a,Clf.BAYES,32
../pcaps/headers/easyRtpNoCsrc_noPayl.pcap,0.86345,n/a,40,5,n/a,Clf.BAYES,32
../pcaps/headers/easyRtpv6NoCsrc_noPayl.pcap,0.91025,n/a,60,5,n/a,Clf.BAYES,32
../pcaps/headers/hardRtpNoCsrc_noPayl_randTs.pcap,0.839925,n/a,40,6,n/a,Clf.BAYES,32
../pcaps/headers/hardRtpv6NoCsrc_noPayl_randTs.pcap,0.8926333333333334,n/a,60,6,n/a,Clf.BAYES,32
../pcaps/streams/franka_2000.pcap,0.5791204152262004,n/a,269,113,n/a,Clf.BAYES,64
../pcaps/streams/asterisk_rtp_downstream_240.pcap,0.505247175141243,n/a,96,47,n/a,Clf.BAYES,64
../pcaps/streams/radio_miki_acks_66_no_options_0_ip_id_fix_wnd_sz.pcap,0.8459486166007906,n/a,40,6,n/a,Clf.BAYES,64
../pcaps/streams/vlc_v6_mts_gsm_s16l_ts_rtp_2_fixed_pkt_size_1_2000.pcap,-0.0032430908065426145,n/a,394,395,n/a,Clf.BAYES,64
../pcaps/streams/Ekiga_test_rtp_only_downstream_filtered.pcap,0.2270517603879295,n/a,214,165,n/a,Clf.BAYES,64
../pcaps/headers/easyIp_noPayl.pcap,0.94085,n/a,20,1,n/a,Clf.BAYES,64
../pcaps/headers/easyIpv6_noPayl.pcap,0.9739,n/a,40,1,n/a,Clf.BAYES,64
../pcaps/headers/easyUdp_noPayl.pcap,0.9545357142857143,n/a,28,1,n/a,Clf.BAYES,64
../pcaps/headers/easyUdpv6_noPayl.pcap,0.9780833333333333,n/a,48,1,n/a,Clf.BAYES,64
../pcaps/headers/easyRtpNoCsrc_noPayl.pcap,0.86345,n/a,40,5,n/a,Clf.BAYES,64
../pcaps/headers/easyRtpv6NoCsrc_noPayl.pcap,0.91025,n/a,60,5,n/a,Clf.BAYES,64
../pcaps/headers/hardRtpNoCsrc_noPayl_randTs.pcap,0.837575,n/a,40,6,n/a,Clf.BAYES,64
../pcaps/headers/hardRtpv6NoCsrc_noPayl_randTs.pcap,0.8926333333333334,n/a,60,6,n/a,Clf.BAYES,64
../pcaps/streams/franka_2000.pcap,0.6053082303233401,n/a,269,106,n/a,Clf.BAYES,128
../pcaps/streams/asterisk_rtp_downstream_240.pcap,0.505247175141243,n/a,96,47,n/a,Clf.BAYES,128
../pcaps/streams/radio_miki_acks_66_no_options_0_ip_id_fix_wnd_sz.pcap,0.8459486166007906,n/a,40,6,n/a,Clf.BAYES,128
../pcaps/streams/vlc_v6_mts_gsm_s16l_ts_rtp_2_fixed_pkt_size_1_2000.pcap,0.16974461771416083,n/a,394,327,n/a,Clf.BAYES,128
../pcaps/streams/Ekiga_test_rtp_only_downstream_filtered.pcap,0.2266689352600173,n/a,214,165,n/a,Clf.BAYES,128
../pcaps/headers/easyIp_noPayl.pcap,0.94085,n/a,20,1,n/a,Clf.BAYES,128
../pcaps/headers/easyIpv6_noPayl.pcap,0.9739,n/a,40,1,n/a,Clf.BAYES,128
../pcaps/headers/easyUdp_noPayl.pcap,0.9545357142857143,n/a,28,1,n/a,Clf.BAYES,128
../pcaps/headers/easyUdpv6_noPayl.pcap,0.9780833333333333,n/a,48,1,n/a,Clf.BAYES,128
../pcaps/headers/easyRtpNoCsrc_noPayl.pcap,0.86345,n/a,40,5,n/a,Clf.BAYES,128
../pcaps/headers/easyRtpv6NoCsrc_noPayl.pcap,0.91025,n/a,60,5,n/a,Clf.BAYES,128
../pcaps/headers/hardRtpNoCsrc_noPayl_randTs.pcap,0.837575,n/a,40,6,n/a,Clf.BAYES,128
../pcaps/headers/hardRtpv6NoCsrc_noPayl_randTs.pcap,0.8926333333333334,n/a,60,6,n/a,Clf.BAYES,128
../pcaps/streams/franka_2000.pcap,0.6017544088029145,n/a,269,107,n/a,Clf.BAYES,-1
../pcaps/streams/asterisk_rtp_downstream_240.pcap,0.48858050847457624,n/a,96,49,n/a,Clf.BAYES,-1
../pcaps/streams/radio_miki_acks_66_no_options_0_ip_id_fix_wnd_sz.pcap,0.8459486166007906,n/a,40,6,n/a,Clf.BAYES,-1
../pcaps/streams/vlc_v6_mts_gsm_s16l_ts_rtp_2_fixed_pkt_size_1_2000.pcap,0.16740471435902904,n/a,394,328,n/a,Clf.BAYES,-1
../pcaps/streams/Ekiga_test_rtp_only_downstream_filtered.pcap,0.22312628367949638,n/a,214,166,n/a,Clf.BAYES,-1
../pcaps/headers/easyIp_noPayl.pcap,0.84785,n/a,20,3,n/a,Clf.BAYES,-1
../pcaps/headers/easyIpv6_noPayl.pcap,0.9739,n/a,40,1,n/a,Clf.BAYES,-1
../pcaps/headers/easyUdp_noPayl.pcap,0.8909285714285714,n/a,28,3,n/a,Clf.BAYES,-1
../pcaps/headers/easyUdpv6_noPayl.pcap,0.9780833333333333,n/a,48,1,n/a,Clf.BAYES,-1
../pcaps/headers/easyRtpNoCsrc_noPayl.pcap,0.773025,n/a,40,9,n/a,Clf.BAYES,-1
../pcaps/headers/easyRtpv6NoCsrc_noPayl.pcap,0.8821833333333333,n/a,60,7,n/a,Clf.BAYES,-1
../pcaps/headers/hardRtpNoCsrc_noPayl_randTs.pcap,0.74805,n/a,40,10,n/a,Clf.BAYES,-1
../pcaps/headers/hardRtpv6NoCsrc_noPayl_randTs.pcap,0.8655333333333333,n/a,60,8,n/a,Clf.BAYES,-1
../pcaps/streams/franka_2000.pcap,0.1311845513834985,n/a,269,233,n/a,Clf.KNN,16
../pcaps/streams/asterisk_rtp_downstream_240.pcap,0.34511299435028253,n/a,96,62,n/a,Clf.KNN,16
../pcaps/streams/radio_miki_acks_66_no_options_0_ip_id_fix_wnd_sz.pcap,0.658498023715415,n/a,40,13,n/a,Clf.KNN,16
../pcaps/streams/vlc_v6_mts_gsm_s16l_ts_rtp_2_fixed_pkt_size_1_2000.pcap,-0.0032430908065426145,n/a,394,395,n/a,Clf.KNN,16
../pcaps/streams/Ekiga_test_rtp_only_downstream_filtered.pcap,0.2270517603879295,n/a,214,165,n/a,Clf.KNN,16
../pcaps/headers/easyIp_noPayl.pcap,0.94085,n/a,20,1,n/a,Clf.KNN,16
../pcaps/headers/easyIpv6_noPayl.pcap,0.9739,n/a,40,1,n/a,Clf.KNN,16
../pcaps/headers/easyUdp_noPayl.pcap,0.9545357142857143,n/a,28,1,n/a,Clf.KNN,16
../pcaps/headers/easyUdpv6_noPayl.pcap,0.9780833333333333,n/a,48,1,n/a,Clf.KNN,16
../pcaps/headers/easyRtpNoCsrc_noPayl.pcap,0.86345,n/a,40,5,n/a,Clf.KNN,16
../pcaps/headers/easyRtpv6NoCsrc_noPayl.pcap,0.91025,n/a,60,5,n/a,Clf.KNN,16
../pcaps/headers/hardRtpNoCsrc_noPayl_randTs.pcap,0.414775,n/a,40,23,n/a,Clf.KNN,16
../pcaps/headers/hardRtpv6NoCsrc_noPayl_randTs.pcap,0.5996166666666667,n/a,60,24,n/a,Clf.KNN,16
../pcaps/streams/franka_2000.pcap,0.28552008346180524,n/a,269,192,n/a,Clf.KNN,32
../pcaps/streams/asterisk_rtp_downstream_240.pcap,0.37817796610169496,n/a,96,59,n/a,Clf.KNN,32
../pcaps/streams/radio_miki_acks_66_no_options_0_ip_id_fix_wnd_sz.pcap,0.7840909090909091,n/a,40,8,n/a,Clf.KNN,32
../pcaps/streams/vlc_v6_mts_gsm_s16l_ts_rtp_2_fixed_pkt_size_1_2000.pcap,-0.0032430908065426145,n/a,394,395,n/a,Clf.KNN,32
../pcaps/streams/Ekiga_test_rtp_only_downstream_filtered.pcap,0.2270517603879295,n/a,214,165,n/a,Clf.KNN,32
../pcaps/headers/easyIp_noPayl.pcap,0.94085,n/a,20,1,n/a,Clf.KNN,32
../pcaps/headers/easyIpv6_noPayl.pcap,0.9739,n/a,40,1,n/a,Clf.KNN,32
../pcaps/headers/easyUdp_noPayl.pcap,0.9545357142857143,n/a,28,1,n/a,Clf.KNN,32
../pcaps/headers/easyUdpv6_noPayl.pcap,0.9780833333333333,n/a,48,1,n/a,Clf.KNN,32
../pcaps/headers/easyRtpNoCsrc_noPayl.pcap,0.86345,n/a,40,5,n/a,Clf.KNN,32
../pcaps/headers/easyRtpv6NoCsrc_noPayl.pcap,0.91025,n/a,60,5,n/a,Clf.KNN,32
../pcaps/headers/hardRtpNoCsrc_noPayl_randTs.pcap,0.60505,n/a,40,15,n/a,Clf.KNN,32
../pcaps/headers/hardRtpv6NoCsrc_noPayl_randTs.pcap,0.8926333333333334,n/a,60,6,n/a,Clf.KNN,32
../pcaps/streams/franka_2000.pcap,0.5205223429558645,n/a,269,128,n/a,Clf.KNN,64
../pcaps/streams/asterisk_rtp_downstream_240.pcap,0.4781214689265537,n/a,96,50,n/a,Clf.KNN,64
../pcaps/streams/radio_miki_acks_66_no_options_0_ip_id_fix_wnd_sz.pcap,0.8459486166007906,n/a,40,6,n/a,Clf.KNN,64
../pcaps/streams/vlc_v6_mts_gsm_s16l_ts_rtp_2_fixed_pkt_size_1_2000.pcap,-0.0032430908065426145,n/a,394,395,n/a,Clf.KNN,64
../pcaps/streams/Ekiga_test_rtp_only_downstream_filtered.pcap,0.2270517603879295,n/a,214,165,n/a,Clf.KNN,64
../pcaps/headers/easyIp_noPayl.pcap,0.94085,n/a,20,1,n/a,Clf.KNN,64
../pcaps/headers/easyIpv6_noPayl.pcap,0.9739,n/a,40,1,n/a,Clf.KNN,64
../pcaps/headers/easyUdp_noPayl.pcap,0.9545357142857143,n/a,28,1,n/a,Clf.KNN,64
../pcaps/headers/easyUdpv6_noPayl.pcap,0.9780833333333333,n/a,48,1,n/a,Clf.KNN,64
../pcaps/headers/easyRtpNoCsrc_noPayl.pcap,0.86345,n/a,40,5,n/a,Clf.KNN,64
../pcaps/headers/easyRtpv6NoCsrc_noPayl.pcap,0.91025,n/a,60,5,n/a,Clf.KNN,64
../pcaps/headers/hardRtpNoCsrc_noPayl_randTs.pcap,0.837575,n/a,40,6,n/a,Clf.KNN,64
../pcaps/headers/hardRtpv6NoCsrc_noPayl_randTs.pcap,0.8926333333333334,n/a,60,6,n/a,Clf.KNN,64
../pcaps/streams/franka_2000.pcap,0.5650817974042783,n/a,269,116,n/a,Clf.KNN,128
../pcaps/streams/asterisk_rtp_downstream_240.pcap,0.48998587570621466,n/a,96,48,n/a,Clf.KNN,128
../pcaps/streams/radio_miki_acks_66_no_options_0_ip_id_fix_wnd_sz.pcap,0.8459486166007906,n/a,40,6,n/a,Clf.KNN,128
../pcaps/streams/vlc_v6_mts_gsm_s16l_ts_rtp_2_fixed_pkt_size_1_2000.pcap,0.15107366249498233,n/a,394,334,n/a,Clf.KNN,128
../pcaps/streams/Ekiga_test_rtp_only_downstream_filtered.pcap,0.21709830706221211,n/a,214,167,n/a,Clf.KNN,128
../pcaps/headers/easyIp_noPayl.pcap,0.94085,n/a,20,1,n/a,Clf.KNN,128
../pcaps/headers/easyIpv6_noPayl.pcap,0.9739,n/a,40,1,n/a,Clf.KNN,128
../pcaps/headers/easyUdp_noPayl.pcap,0.9545357142857143,n/a,28,1,n/a,Clf.KNN,128
../pcaps/headers/easyUdpv6_noPayl.pcap,0.9780833333333333,n/a,48,1,n/a,Clf.KNN,128
../pcaps/headers/easyRtpNoCsrc_noPayl.pcap,0.86345,n/a,40,5,n/a,Clf.KNN,128
../pcaps/headers/easyRtpv6NoCsrc_noPayl.pcap,0.91025,n/a,60,5,n/a,Clf.KNN,128
../pcaps/headers/hardRtpNoCsrc_noPayl_randTs.pcap,0.837575,n/a,40,6,n/a,Clf.KNN,128
../pcaps/headers/hardRtpv6NoCsrc_noPayl_randTs.pcap,0.8926333333333334,n/a,60,6,n/a,Clf.KNN,128
../pcaps/streams/franka_2000.pcap,0.6017544088029145,n/a,269,107,n/a,Clf.KNN,-1
../pcaps/streams/asterisk_rtp_downstream_240.pcap,0.4885734463276836,n/a,96,49,n/a,Clf.KNN,-1
../pcaps/streams/radio_miki_acks_66_no_options_0_ip_id_fix_wnd_sz.pcap,0.8459486166007906,n/a,40,6,n/a,Clf.KNN,-1
../pcaps/streams/vlc_v6_mts_gsm_s16l_ts_rtp_2_fixed_pkt_size_1_2000.pcap,0.16740471435902904,n/a,394,328,n/a,Clf.KNN,-1
../pcaps/streams/Ekiga_test_rtp_only_downstream_filtered.pcap,0.22237278660233584,n/a,214,166,n/a,Clf.KNN,-1
../pcaps/headers/easyIp_noPayl.pcap,0.84785,n/a,20,3,n/a,Clf.KNN,-1
../pcaps/headers/easyIpv6_noPayl.pcap,0.9739,n/a,40,1,n/a,Clf.KNN,-1
../pcaps/headers/easyUdp_noPayl.pcap,0.8909285714285714,n/a,28,3,n/a,Clf.KNN,-1
../pcaps/headers/easyUdpv6_noPayl.pcap,0.9780833333333333,n/a,48,1,n/a,Clf.KNN,-1
../pcaps/headers/easyRtpNoCsrc_noPayl.pcap,0.773025,n/a,40,9,n/a,Clf.KNN,-1
../pcaps/headers/easyRtpv6NoCsrc_noPayl.pcap,0.8821833333333333,n/a,60,7,n/a,Clf.KNN,-1
../pcaps/headers/hardRtpNoCsrc_noPayl_randTs.pcap,0.74805,n/a,40,10,n/a,Clf.KNN,-1
../pcaps/headers/hardRtpv6NoCsrc_noPayl_randTs.pcap,0.8655333333333333,n/a,60,8,n/a,Clf.KNN,-1
